…
Similarly, we can pass in a vector of two characters to the function,
which will count the number of incidents across the two enumerations:

``` r
getenum_df(vcdb, c("action", "asset.variety"))
```

    ## # A tibble: 64 x 3
    ##    action   asset.variety     x
    ##    <chr>    <chr>         <int>
    ##  1 Hacking  Server         1890
    ##  2 Error    Media          1395
    ##  3 Misuse   Server         1030
    ##  4 Physical User Dev        706
    ##  5 Error    Server          662
    ##  6 Social   Person          554
    ##  7 Physical Media           478
    ##  8 Malware  Server          453
    ##  9 Social   Server          375
    ## 10 Malware  User Dev        371
    ## # … with 54 more rows
…
